"messageSetId","messageId","sequenceOrder","createdAt","updatedAt"
2001,703,1,"2018-02-17 03:55:39","2018-02-17 03:55:39"
2001,49,2,"2018-02-17 03:55:39","2018-02-17 03:55:39"
2001,10,3,"2018-02-17 03:55:39","2018-02-17 03:55:39"
2002,703,1,"2018-02-17 03:55:39","2018-02-17 03:55:39"
2003,703,2,"2018-02-17 03:55:39","2018-02-17 03:55:39"
2003,49,3,"2018-02-17 03:55:39","2018-02-17 03:55:39"
2003,10,1,"2018-02-17 03:55:39","2018-02-17 03:55:39"
2004,703,1,"2018-02-17 03:55:39","2018-02-17 03:55:39"
2004,49,2,"2018-02-17 03:55:39","2018-02-17 03:55:39"
2004,10,3,"2018-02-17 03:55:39","2018-02-17 03:55:39"
