{
	"pfizerus": {
	    "stage2": { 
            "learningApi":"https://learningteamdev-learning-api.aktana.com/api/v1.0/",
		    "secret":"AktanaSecret!",
			"username":"aktanaadmin",
			"password":"password!123" },
		"stage": { 
            "learningApi":"https://learningteamqa-learning-api.aktana.com/api/v1.0/",
			"secret":"AktanaSecret!",
			"username":"aktanaadmin",
			"password":"password!123" }
	},

    "pfizerbdpus": {
        "dev": { 
            "learningApi":"https://qadsedev.aktana.com/pfizerbdpus/learning/api/v1.0/",
            "secret":"AktanaSecret226033!",
            "username":"aktanaadmin",
            "password":"password!123" },
        "predev": { 
            "learningApi":"https://qadsepredev.aktana.com/pfizerbdpus/learning/api/v1.0/",
            "secret":"AktanaSecret226033!",
            "username":"aktanaadmin",
            "password":"password!123" }
    }, 

    "bayerbdpjp": {
        "dev": { 
            "learningApi":"https://qadsedev.aktana.com/bayerbdpjp/learning/api/v1.0/",
            "secret":"AktanaSecret806385!",
            "username":"aktanaadmin",
            "password":"YdCFEfc9sZFp6uF" }
    }, 

    "pfizerbdpcn": {
        "dev": { 
            "learningApi":"https://qadsedev.aktana.com/pfizerbdpcn/learning/api/v1.0/",
            "secret":"AktanaSecret806385!",
            "username":"aktanaadmin",
            "password":"YdCFEfc9sZFp6uF" }
    }, 

    "autoqa": {
        "preprod": { 
            "learningApi":"https://qadsepreprod.aktana.com/autoqa/learning/api/v1.0/",
            "secret":"AktanaSecret185690!",
            "username":"aktanaadmin",
            "password":"RPjBHkJVqaieWLA" }
    }
}
